<?xml version="1.0" standalone="no"?>
<!DOCTYPE svg PUBLIC "-//W3C//DTD SVG 20010904//EN"
 "http://www.w3.org/TR/2001/REC-SVG-20010904/DTD/svg10.dtd">
<svg version="1.0" xmlns="http://www.w3.org/2000/svg"
 width="200pt" height="200pt" viewBox="0 0 200 150"
 preserveAspectRatio="xMidYMid meet">
<metadata>
Created by potrace 1.15, written by Peter Selinger 2001-2017
</metadata>
<g transform="translate(-50, 230) scale(0.1, -0.1)"
fill="#ffffff" stroke="none">
<path d="M1435 1686 c-16 -7 -45 -26 -64 -42 -31 -26 -33 -26 -22 -5 16 29 8
37 -24 23 -17 -8 -35 -33 -55 -76 -19 -42 -36 -66 -50 -71 -20 -6 -21 -9 -7
-22 23 -23 62 -9 85 31 46 78 143 94 244 42 51 -26 51 -26 65 -6 8 11 28 27
45 36 28 15 30 17 14 26 -10 6 -34 8 -52 5 -36 -6 -37 -1 -5 37 15 17 14 18
-39 14 -30 -2 -63 -8 -72 -12 -14 -6 -18 -3 -18 13 0 24 -4 25 -45 7z"/>
<path d="M1375 1522 c-43 -26 -53 -41 -65 -97 -6 -27 -17 -57 -25 -65 -13 -14
-10 -18 18 -33 18 -10 55 -48 82 -85 38 -51 58 -68 79 -70 26 -3 28 -2 21 26
-3 18 0 45 10 70 16 40 16 42 -8 74 -21 28 -41 78 -32 78 2 0 20 -17 41 -37
31 -32 37 -44 35 -74 -1 -22 3 -40 13 -48 14 -12 16 -5 16 70 -1 165 -85 252
-185 191z"/>
<path d="M901 1467 c-17 -12 -31 -25 -31 -28 0 -4 20 -10 45 -14 25 -3 63 -12
83 -20 34 -12 29 -12 -60 -8 l-96 6 -37 -57 c-55 -87 -55 -87 19 -60 196 71
381 23 544 -143 l84 -84 -29 53 c-35 64 -168 201 -248 255 -67 45 -150 89
-206 108 -33 12 -39 11 -68 -8z"/>
<path d="M964 1281 c-57 -15 -119 -50 -162 -93 -23 -23 -39 -45 -35 -48 5 -4
29 -15 56 -25 54 -20 57 -31 3 -17 -20 6 -36 7 -36 4 0 -13 67 -53 121 -71 62
-21 169 -35 169 -22 0 18 -94 94 -147 118 l-55 25 33 34 c46 47 110 75 177 75
38 1 51 4 40 10 -24 13 -128 19 -164 10z"/>
<path d="M1556 1198 c7 -21 8 -126 2 -173 -3 -16 4 -21 37 -26 31 -4 16 -7
-60 -13 -244 -18 -268 -21 -273 -33 -3 -10 36 -13 170 -14 128 -1 161 -3 128
-10 -24 -5 -48 -16 -53 -24 -23 -42 -74 -87 -129 -115 -34 -16 -67 -30 -75
-30 -23 0 -4 -19 35 -36 20 -9 67 -17 104 -17 55 -1 76 4 124 29 67 34 119 95
136 159 11 41 14 43 56 49 85 11 101 8 108 -20 8 -32 12 -32 244 29 l165 44
-55 12 c-94 19 -322 61 -334 61 -7 0 -16 -15 -21 -32 -10 -33 -10 -33 -81 -36
l-71 -3 -6 36 c-9 53 -52 122 -99 155 -49 36 -62 38 -52 8z"/>
</g>
</svg>
